{
   "userList" : {
      "user" : [ {
         "id" : "c95d4eac-a09e-48ef-b6e9-ae34624efe1f",
         "login" : "log",
         "password" : "cd0acfe085eeb0f874391fb9b8009bed",
         "role" : "USER"
      } ]
   }
}